{
  "cordova-plugin-whitelist": {
    "source": {
      "type": "registry",
      "id": "cordova-plugin-whitelist@1"
    },
    "is_top_level": true,
    "variables": {}
  },
  "cordova-plugin-splashscreen": {
    "source": {
      "type": "registry",
      "id": "https://github.com/apache/cordova-plugin-splashscreen.git"
    },
    "is_top_level": true,
    "variables": {}
  },
  "cordova-plugin-advanced-http": {
    "source": {
      "type": "registry",
      "id": "cordova-plugin-advanced-http"
    },
    "is_top_level": true,
    "variables": {
      "OKHTTP_VERSION": "3.10.0"
    }
  },
  "cordova-plugin-file": {
    "source": {
      "type": "registry",
      "id": "cordova-plugin-file@^6.0.2"
    },
    "is_top_level": true,
    "variables": {}
  },
  "cordova-sqlite-storage": {
    "source": {
      "type": "registry",
      "id": "cordova-sqlite-storage"
    },
    "is_top_level": true,
    "variables": {}
  },
  "cordova-plugin-dialogs": {
    "source": {
      "type": "registry",
      "id": "cordova-plugin-dialogs"
    },
    "is_top_level": true,
    "variables": {}
  },
  "cordova-plugin-network-information": {
    "source": {
      "type": "registry",
      "id": "cordova-plugin-network-information@^2.0.2"
    },
    "is_top_level": true,
    "variables": {}
  },
  "cordova-plugin-progress": {
    "source": {
      "type": "registry",
      "id": "cordova-plugin-progress@^0.3.0"
    },
    "is_top_level": true,
    "variables": {}
  },
  "cordova-plugin-pdialog": {
    "source": {
      "type": "registry",
      "id": "cordova-plugin-pdialog"
    },
    "is_top_level": true,
    "variables": {}
  },
  "cordova-plugin-device": {
    "source": {
      "type": "registry",
      "id": "cordova-plugin-device"
    },
    "is_top_level": true,
    "variables": {}
  },
  "cordova-plugin-local-notification": {
    "source": {
      "type": "registry",
      "id": "cordova-plugin-local-notification"
    },
    "is_top_level": true,
    "variables": {}
  },
  "cordova-plugin-badge": {
    "source": {
      "type": "registry",
      "id": "cordova-plugin-badge@>=0.8.5"
    },
    "is_top_level": false,
    "variables": {}
  },
  "com.lampa.startapp": {
    "source": {
      "type": "registry",
      "id": "https://github.com/lampaa/com.lampa.startapp.git"
    },
    "is_top_level": true,
    "variables": {}
  },
  "cordova-plugin-in-app-youtube": {
    "source": {
      "type": "registry",
      "id": "https://github.com/davidefavia/cordova-plugin-in-app-youtube"
    },
    "is_top_level": true,
    "variables": {}
  },
  "com.moust.cordova.videoplayer": {
    "source": {
      "type": "registry",
      "id": "cordova-plugin-video-player"
    },
    "is_top_level": true,
    "variables": {}
  },
  "cordova-plugin-stripe": {
    "source": {
      "type": "registry",
      "id": "cordova-plugin-stripe@^1.5.3"
    },
    "is_top_level": true,
    "variables": {}
  }
}